\contentsline {section}{INTRODUCTION}{2}
\contentsline {section}{SYSTEM REQUIREMENTS}{2}
\contentsline {section}{LICENSE}{2}
\contentsline {section}{RUNNING RAMBO-K}{2}
\contentsline {subsection}{References and names}{2}
\contentsline {subsection}{Unassigned reads}{2}
\contentsline {subsection}{File structure}{2}
\contentsline {subsection}{K-mer sizes}{3}
\contentsline {subsection}{Cutoffs}{3}
\contentsline {subsection}{Number of reads used for simulation}{3}
\contentsline {subsection}{Threading}{3}
\contentsline {subsection}{Hints}{3}
\contentsline {section}{EXAMPLE}{4}
